<?xml version="1.0"?>
<robot xmlns:xacro="http://www.ros.org/wiki/xacro" name="tether">

	<!-- The following included files set up definitions of parts of the robot body -->
	
	<!-- Base -->
	<xacro:include filename="$(find tether_description)/urdfs/base/base.xacro"/>
	
	<!-- Tether links -->
	<xacro:include filename="$(find tether_description)/urdfs/link/link.xacro"/>

	<!-- generic simulator_gazebo plugins for starting mechanism control, ros time -->
	<xacro:include filename="$(find tether_description)/robots/tether_gazebo.xacro"/>

	<!-- Utilise macros to build robot -->
	
	<!-- Base -->
	<xacro:BaseLink name="base">
		<origin xyz="0.0 0.0 0.0" rpy="0 0 0"/>
	</xacro:BaseLink>

	<!-- Add links as required -->
	<xacro:TetherLink
		name="link_1"
		parent="guide_rail_link">
		<origin xyz="0.13 0 0" rpy="0 0 0"/>
	</xacro:TetherLink> 

	<xacro:TetherLink
		name="link_2"
		parent="link_1_link">
		<origin xyz="0.06 0 0" rpy="0 0 0"/>
	</xacro:TetherLink> 

	<xacro:TetherLink
		name="link_3"
		parent="link_2_link">
		<origin xyz="0.06 0 0" rpy="0 0 0"/>
	</xacro:TetherLink>

	<xacro:TetherLink
		name="link_4"
		parent="link_3_link">
		<origin xyz="0.06 0 0" rpy="0 0 0"/>
	</xacro:TetherLink>

	<xacro:TetherLink
		name="link_5"
		parent="link_4_link">
		<origin xyz="0.06 0 0" rpy="0 0 0"/>
	</xacro:TetherLink>

	<xacro:TetherLink
		name="link_6"
		parent="link_5_link">
		<origin xyz="0.06 0 0" rpy="0 0 0"/>
	</xacro:TetherLink>  
</robot>
