<?xml version="1.0"?>

<robot xmlns:xacro="http://www.ros.org/wiki/xacro">

	<xacro:macro name="link_gazebo" params="name">

		<gazebo reference="${name}_joint_y">
			<provideFeedback>true</provideFeedback>
		</gazebo>
		<gazebo reference="${name}_joint_x">
			<provideFeedback>true</provideFeedback>
		</gazebo>
		<gazebo reference="${name}_joint_z">
			<provideFeedback>true</provideFeedback>
		</gazebo>

		<gazebo reference="${name}_link_x">
			<kp>100000.0</kp>
			<kd>0.1</kd>
			<mu1>1.0</mu1>
			<mu2>1.0</mu2>
			<!-- <fdir1>1 0 0</fdir1> -->
			<maxVel>0.00</maxVel> 		<!-- contact correction velocity truncation -->
			<minDepth>0.001</minDepth> 	<!-- penetration between objects -->
			<material>Gazebo/Black</material>
		</gazebo>

		<gazebo reference="${name}_link_y">
			<kp>100000.0</kp>
			<kd>0.1</kd>
			<mu1>1.0</mu1>
			<mu2>1.0</mu2>
			<!-- <fdir1>1 0 0</fdir1> -->
			<maxVel>0.00</maxVel> 		<!-- contact correction velocity truncation -->
			<minDepth>0.001</minDepth> 	<!-- penetration between objects -->
			<material>Gazebo/Black</material>
		</gazebo>

		<gazebo reference="${name}_link">
			<kp>100000.0</kp>
			<kd>0.1</kd>
			<mu1>1.0</mu1>
			<mu2>1.0</mu2>
			<!-- <fdir1>1 0 0</fdir1> -->
			<maxVel>0.00</maxVel> 		<!-- contact correction velocity truncation -->
			<minDepth>0.001</minDepth> 	<!-- penetration between objects -->
			<material>Gazebo/Black</material>
			<selfCollide>true</selfCollide>
		</gazebo>

	</xacro:macro>

</robot>
